Working with data in files
…
data_dir <- here::here("data", "population")

read_country <- function(file_name) {
  # Remove the file extension from the file_name and capitalize it
  country_name <- str_to_title(file_path_sans_ext(file_name))
  
  # Read the file and mutate to add the country column without the file extension
  d <- read_delim(file.path(data_dir, file_name), delim = "\t", col_types = colspec) |> 
    mutate(country = country_name)
  return(d)
}

read_country("congo.txt")

# A tibble: 54 × 6
    year     pop   pop.m   pop.f  dens country
   <int>   <int>   <int>   <int> <dbl> <chr>  
 1  2013 4447632 2223306 2224326    13 Congo  
 2  2012 4337051 2167898 2169153    13 Congo  
 3  2011 4225359 2111921 2113438    12 Congo  
 4  2010 4111715 2054954 2056761    12 Congo  
 5  2009 3995146 1996513 1998633    12 Congo  
 6  2008 3876475 1937010 1939465    11 Congo  
 7  2007 3758858 1878018 1880840    11 Congo  
 8  2006 3646653 1821707 1824946    11 Congo  
 9  2005 3542867 1769578 1773289    10 Congo  
10  2004 3448868 1722314 1726554    10 Congo  
# ℹ 44 more rows
…
[1] "congo.txt"   "denmark.txt" "ghana.txt"   "ireland.txt" "japan.txt"  
[6] "nepal.txt"   "russia.txt"  "usa.txt"    

Modify the command below to use lapply with your own function and the fls vector of filenames to make a list of data sets (tibbles) (remember to turn on chunk evaulation):

data_list <- lapply(fls, read_country)

Modify the command to use bind_rows() to combine the results to a single data set (tibble):

popstat2 <- bind_rows(data_list)

print(popstat2)

# A tibble: 434 × 6
    year     pop   pop.m   pop.f  dens country
   <int>   <int>   <int>   <int> <dbl> <chr>  
 1  2013 4447632 2223306 2224326    13 Congo  
 2  2012 4337051 2167898 2169153    13 Congo  
 3  2011 4225359 2111921 2113438    12 Congo  
 4  2010 4111715 2054954 2056761    12 Congo  
 5  2009 3995146 1996513 1998633    12 Congo  
 6  2008 3876475 1937010 1939465    11 Congo  
 7  2007 3758858 1878018 1880840    11 Congo  
 8  2006 3646653 1821707 1824946    11 Congo  
 9  2005 3542867 1769578 1773289    10 Congo  
10  2004 3448868 1722314 1726554    10 Congo  
# ℹ 424 more rows
…
# Step 3: Filter data to include only the common years
cleaned_data <- popstat2 |>
  filter(year %in% common_years)

# 1 combined_data |> filter(year %in% common_years):
# Purpose: Filters the combined_data tibble to include only rows where the year is in the common_years vector.
# Result: A filtered tibble where only the rows with years common to all datasets are kept.

# Print the cleaned data
print(cleaned_data)

# A tibble: 432 × 6
    year     pop   pop.m   pop.f  dens country
   <int>   <int>   <int>   <int> <dbl> <chr>  
 1  2013 4447632 2223306 2224326    13 Congo  
 2  2012 4337051 2167898 2169153    13 Congo  
 3  2011 4225359 2111921 2113438    12 Congo  
 4  2010 4111715 2054954 2056761    12 Congo  
 5  2009 3995146 1996513 1998633    12 Congo  
 6  2008 3876475 1937010 1939465    11 Congo  
 7  2007 3758858 1878018 1880840    11 Congo  
 8  2006 3646653 1821707 1824946    11 Congo  
 9  2005 3542867 1769578 1773289    10 Congo  
10  2004 3448868 1722314 1726554    10 Congo  
# ℹ 422 more rows
…
