Data Science Exam: Part 1
…
wpop_full <- wpop_raw_dat |> # Remove year 2023 so that 2022 is last column
  select(-`2023`)

wpop_full result

wpop_full

# A tibble: 266 × 65
   country  code  `1960` `1961` `1962` `1963` `1964` `1965` `1966` `1967` `1968`
   <chr>    <chr>  <dbl>  <dbl>  <dbl>  <dbl>  <dbl>  <dbl>  <dbl>  <dbl>  <dbl>
 1 Aruba    ABW   5.46e4 5.58e4 5.67e4 5.75e4 5.82e4 5.88e4 5.93e4 5.95e4 5.95e4
 2 Africa … AFE   1.31e8 1.34e8 1.38e8 1.42e8 1.46e8 1.50e8 1.54e8 1.58e8 1.63e8
 3 Afghani… AFG   8.62e6 8.79e6 8.97e6 9.16e6 9.36e6 9.57e6 9.78e6 1.00e7 1.02e7
 4 Africa … AFW   9.73e7 9.93e7 1.01e8 1.04e8 1.06e8 1.08e8 1.11e8 1.13e8 1.16e8
 5 Angola   AGO   5.36e6 5.44e6 5.52e6 5.60e6 5.67e6 5.74e6 5.79e6 5.83e6 5.87e6
 6 Albania  ALB   1.61e6 1.66e6 1.71e6 1.76e6 1.81e6 1.86e6 1.91e6 1.97e6 2.02e6
 7 Andorra  AND   9.44e3 1.02e4 1.10e4 1.18e4 1.27e4 1.36e4 1.45e4 1.57e4 1.71e4
 8 Arab Wo… ARB   9.34e7 9.58e7 9.83e7 1.01e8 1.04e8 1.06e8 1.09e8 1.12e8 1.16e8
 9 United … ARE   1.33e5 1.41e5 1.49e5 1.57e5 1.65e5 1.74e5 1.83e5 1.91e5 2.14e5
10 Argenti… ARG   2.03e7 2.07e7 2.10e7 2.14e7 2.17e7 2.21e7 2.24e7 2.28e7 2.31e7
# ℹ 256 more rows
# ℹ 54 more variables: `1969` <dbl>, `1970` <dbl>, `1971` <dbl>, `1972` <dbl>,
#   `1973` <dbl>, `1974` <dbl>, `1975` <dbl>, `1976` <dbl>, `1977` <dbl>,
#   `1978` <dbl>, `1979` <dbl>, `1980` <dbl>, `1981` <dbl>, `1982` <dbl>,
#   `1983` <dbl>, `1984` <dbl>, `1985` <dbl>, `1986` <dbl>, `1987` <dbl>,
#   `1988` <dbl>, `1989` <dbl>, `1990` <dbl>, `1991` <dbl>, `1992` <dbl>,
#   `1993` <dbl>, `1994` <dbl>, `1995` <dbl>, `1996` <dbl>, `1997` <dbl>, …
…
[[2]]
# A tibble: 249 × 6
   English short name  (using tit…¹ `Alpha-2 code` `Alpha-3 code` `Numeric code`
   <chr>                            <chr>          <chr>                   <int>
 1 Afghanistan[c]                   AF             AFG                         4
 2 Åland Islands                    AX             ALA                       248
 3 Albania                          AL             ALB                         8
 4 Algeria                          DZ             DZA                        12
 5 American Samoa                   AS             ASM                        16
 6 Andorra                          AD             AND                        20
 7 Angola                           AO             AGO                        24
 8 Anguilla                         AI             AIA                       660
 9 Antarctica                       AQ             ATA                        10
10 Antigua and Barbuda              AG             ATG                        28
# ℹ 239 more rows
# ℹ abbreviated name: ¹​`English short name  (using title case)`
# ℹ 2 more variables: `Link to ISO 3166-2` <chr>, `Independent[b]` <chr>

[[3]]
# A tibble: 37 × 3
   `Edition/Newsletter`                                   `Date issued` Contents
   <chr>                                                  <chr>         <chr>   
 1 ISO 3166:1974                                          1974          First e…
 2 ISO 3166:1981                                          1981          Second …
 3 ISO 3166:1988                                          1988-08-15    Third e…
 4 ISO 3166:1994                                          1994-02-10    Fourth …
 5 ISO 3166-1:1997                                        1997-09-25    First e…
 6 Newsletter V-1 Archived 2018-12-07 at the Wayback Mac… 1998-02-05    Change …
 7 Newsletter V-2 Archived 2011-07-22 at the Wayback Mac… 1999-10-01    Inclusi…
 8 Newsletter V-3                                         2002-02-01    Change …
 9 Newsletter V-4 Archived 2018-12-07 at the Wayback Mac… 2002-05-20    Name ch…
10 Newsletter V-5 Archived 2018-12-07 at the Wayback Mac… 2002-05-20    Change …
# ℹ 27 more rows
…
colnames(raw_dat) #check rename was done

[1] "name"               "Alpha-2 code"       "iso3"              
[4] "Numeric code"       "Link to ISO 3166-2" "independent"       

iso_codes_all <- raw_dat |>
  select(name, iso3, independent)

iso_codes_all result

iso_codes_all

# A tibble: 249 × 3
   name                iso3  independent
   <chr>               <chr> <chr>      
 1 Afghanistan[c]      AFG   Yes        
 2 Åland Islands       ALA   No         
 3 Albania             ALB   Yes        
 4 Algeria             DZA   Yes        
 5 American Samoa      ASM   No         
 6 Andorra             AND   Yes        
 7 Angola              AGO   Yes        
 8 Anguilla            AIA   No         
 9 Antarctica          ATA   No         
10 Antigua and Barbuda ATG   Yes        
# ℹ 239 more rows

Exercise 3

Use filter() to extract the independent countries from iso_codes_all and save the result as iso_codes.

iso_codes <- iso_codes_all |>
  filter(independent == "Yes")

iso_codes

# A tibble: 194 × 3
   name                iso3  independent
   <chr>               <chr> <chr>      
 1 Afghanistan[c]      AFG   Yes        
 2 Albania             ALB   Yes        
 3 Algeria             DZA   Yes        
 4 Andorra             AND   Yes        
 5 Angola              AGO   Yes        
 6 Antigua and Barbuda ATG   Yes        
 7 Argentina           ARG   Yes        
 8 Armenia             ARM   Yes        
 9 Australia           AUS   Yes        
10 Austria             AUT   Yes        
# ℹ 184 more rows

Exercise 4

Use a suitable join (and/or filter) command to make a dataset wpop only containing those rows of wpop_full which have a matching ISO country code in iso_codes:

# return only rows that have a match in the iso_codes without columns therefore semi_join and not inner_join
wpop <- semi_join(wpop_full, iso_codes, by = c("code" = "iso3")) 

wpop

# A tibble: 193 × 65
   country  code  `1960` `1961` `1962` `1963` `1964` `1965` `1966` `1967` `1968`
   <chr>    <chr>  <dbl>  <dbl>  <dbl>  <dbl>  <dbl>  <dbl>  <dbl>  <dbl>  <dbl>
 1 Afghani… AFG   8.62e6 8.79e6 8.97e6 9.16e6 9.36e6 9.57e6 9.78e6 1.00e7 1.02e7
 2 Angola   AGO   5.36e6 5.44e6 5.52e6 5.60e6 5.67e6 5.74e6 5.79e6 5.83e6 5.87e6
 3 Albania  ALB   1.61e6 1.66e6 1.71e6 1.76e6 1.81e6 1.86e6 1.91e6 1.97e6 2.02e6
 4 Andorra  AND   9.44e3 1.02e4 1.10e4 1.18e4 1.27e4 1.36e4 1.45e4 1.57e4 1.71e4
 5 United … ARE   1.33e5 1.41e5 1.49e5 1.57e5 1.65e5 1.74e5 1.83e5 1.91e5 2.14e5
 6 Argenti… ARG   2.03e7 2.07e7 2.10e7 2.14e7 2.17e7 2.21e7 2.24e7 2.28e7 2.31e7
 7 Armenia  ARM   1.90e6 1.97e6 2.04e6 2.11e6 2.17e6 2.23e6 2.30e6 2.36e6 2.42e6
 8 Antigua… ATG   5.53e4 5.62e4 5.70e4 5.78e4 5.87e4 5.96e4 6.06e4 6.16e4 6.27e4
 9 Austral… AUS   1.03e7 1.05e7 1.07e7 1.10e7 1.12e7 1.14e7 1.17e7 1.18e7 1.20e7
10 Austria  AUT   7.05e6 7.09e6 7.13e6 7.18e6 7.22e6 7.27e6 7.32e6 7.38e6 7.42e6
# ℹ 183 more rows
# ℹ 54 more variables: `1969` <dbl>, `1970` <dbl>, `1971` <dbl>, `1972` <dbl>,
#   `1973` <dbl>, `1974` <dbl>, `1975` <dbl>, `1976` <dbl>, `1977` <dbl>,
#   `1978` <dbl>, `1979` <dbl>, `1980` <dbl>, `1981` <dbl>, `1982` <dbl>,
#   `1983` <dbl>, `1984` <dbl>, `1985` <dbl>, `1986` <dbl>, `1987` <dbl>,
#   `1988` <dbl>, `1989` <dbl>, `1990` <dbl>, `1991` <dbl>, `1992` <dbl>,
#   `1993` <dbl>, `1994` <dbl>, `1995` <dbl>, `1996` <dbl>, `1997` <dbl>, …

Exercise 5

Show the countries/areas which have the same ISO country code in both wpop and iso_codes but different (spellings of) country names.

join_data <- inner_join(wpop, iso_codes, by = c("code" = "iso3"))

different_spelling <- filter(join_data, country != name)

result <- different_spelling |> 
  select(name, code, country)

result

# A tibble: 28 × 3
   name                              code  country              
   <chr>                             <chr> <chr>                
 1 Afghanistan[c]                    AFG   Afghanistan          
 2 Bahamas                           BHS   Bahamas, The         
 3 Bolivia, Plurinational State of   BOL   Bolivia              
 4 China[c]                          CHN   China                
 5 Côte d'Ivoire                     CIV   Cote d'Ivoire        
 6 Congo, Democratic Republic of the COD   Congo, Dem. Rep.     
 7 Congo                             COG   Congo, Rep.          
 8 Cyprus[c]                         CYP   Cyprus               
 9 Egypt                             EGY   Egypt, Arab Rep.     
10 Micronesia, Federated States of   FSM   Micronesia, Fed. Sts.
# ℹ 18 more rows
…
[[2]]
# A tibble: 2 × 5
  X1                                                     X2    X3    X4    X5   
  <chr>                                                  <chr> <chr> <chr> <chr>
1 ".mw-parser-output .hidden-begin{box-sizing:border-bo… Coun… Coun… Coun… Engl…
2 ".mw-parser-output .hidden-begin{box-sizing:border-bo… Two-… Thre… Thre… Engl…

[[3]]
# A tibble: 253 × 5
   CC    `a-2` `a-3` `#`   Name                                        
   <chr> <chr> <chr> <chr> <chr>                                       
 1 AS    AF    AFG   004   Afghanistan, Islamic Republic of            
 2 EU    AL    ALB   008   Albania, Republic of                        
 3 AN    AQ    ATA   010   Antarctica (the territory South of 60 deg S)
 4 AF    DZ    DZA   012   Algeria, People's Democratic Republic of    
 5 OC    AS    ASM   016   American Samoa                              
 6 EU    AD    AND   020   Andorra, Principality of                    
 7 AF    AO    AGO   024   Angola, Republic of                         
 8 NA    AG    ATG   028   Antigua and Barbuda                         
 9 AS    AZ    AZE   031   Azerbaijan, Republic of                     
10 SA    AR    ARG   032   Argentina, Argentine Republic               
# ℹ 243 more rows
…
raw_continents <- tables[[3]]

raw_continents

# A tibble: 253 × 5
   CC    `a-2` `a-3` `#`   Name                                        
   <chr> <chr> <chr> <chr> <chr>                                       
 1 AS    AF    AFG   004   Afghanistan, Islamic Republic of            
 2 EU    AL    ALB   008   Albania, Republic of                        
 3 AN    AQ    ATA   010   Antarctica (the territory South of 60 deg S)
 4 AF    DZ    DZA   012   Algeria, People's Democratic Republic of    
 5 OC    AS    ASM   016   American Samoa                              
 6 EU    AD    AND   020   Andorra, Principality of                    
 7 AF    AO    AGO   024   Angola, Republic of                         
 8 NA    AG    ATG   028   Antigua and Barbuda                         
 9 AS    AZ    AZE   031   Azerbaijan, Republic of                     
10 SA    AR    ARG   032   Argentina, Argentine Republic               
# ℹ 243 more rows
…
colnames(raw_continents) #check rename was done

[1] "continent" "a-2"       "iso3"      "#"         "Name"     

continents <- raw_continents |>
  select(continent, iso3)

Result

continents

# A tibble: 253 × 2
   continent iso3 
   <chr>     <chr>
 1 AS        AFG  
 2 EU        ALB  
 3 AN        ATA  
 4 AF        DZA  
 5 OC        ASM  
 6 EU        AND  
 7 AF        AGO  
 8 NA        ATG  
 9 AS        AZE  
10 SA        ARG  
# ℹ 243 more rows

Exercise 7

Make a new dataset wpop2 by extending wpop with the extra column continent from the continents data (possibly using relocate() to move the continent column to the left to see it more clearly).

join_data <- inner_join(wpop, continents, by = c("code" = "iso3")) #join wpop and continent table.

wpop2 <- join_data |>
  relocate(continent, .before = country) # set continent to left of country

wpop2

# A tibble: 193 × 66
   continent country      code  `1960` `1961` `1962` `1963` `1964` `1965` `1966`
   <chr>     <chr>        <chr>  <dbl>  <dbl>  <dbl>  <dbl>  <dbl>  <dbl>  <dbl>
 1 AS        Afghanistan  AFG   8.62e6 8.79e6 8.97e6 9.16e6 9.36e6 9.57e6 9.78e6
 2 AF        Angola       AGO   5.36e6 5.44e6 5.52e6 5.60e6 5.67e6 5.74e6 5.79e6
 3 EU        Albania      ALB   1.61e6 1.66e6 1.71e6 1.76e6 1.81e6 1.86e6 1.91e6
 4 EU        Andorra      AND   9.44e3 1.02e4 1.10e4 1.18e4 1.27e4 1.36e4 1.45e4
 5 AS        United Arab… ARE   1.33e5 1.41e5 1.49e5 1.57e5 1.65e5 1.74e5 1.83e5
 6 SA        Argentina    ARG   2.03e7 2.07e7 2.10e7 2.14e7 2.17e7 2.21e7 2.24e7
 7 AS        Armenia      ARM   1.90e6 1.97e6 2.04e6 2.11e6 2.17e6 2.23e6 2.30e6
 8 NA        Antigua and… ATG   5.53e4 5.62e4 5.70e4 5.78e4 5.87e4 5.96e4 6.06e4
 9 OC        Australia    AUS   1.03e7 1.05e7 1.07e7 1.10e7 1.12e7 1.14e7 1.17e7
10 EU        Austria      AUT   7.05e6 7.09e6 7.13e6 7.18e6 7.22e6 7.27e6 7.32e6
# ℹ 183 more rows
# ℹ 56 more variables: `1967` <dbl>, `1968` <dbl>, `1969` <dbl>, `1970` <dbl>,
#   `1971` <dbl>, `1972` <dbl>, `1973` <dbl>, `1974` <dbl>, `1975` <dbl>,
#   `1976` <dbl>, `1977` <dbl>, `1978` <dbl>, `1979` <dbl>, `1980` <dbl>,
#   `1981` <dbl>, `1982` <dbl>, `1983` <dbl>, `1984` <dbl>, `1985` <dbl>,
#   `1986` <dbl>, `1987` <dbl>, `1988` <dbl>, `1989` <dbl>, `1990` <dbl>,
#   `1991` <dbl>, `1992` <dbl>, `1993` <dbl>, `1994` <dbl>, `1995` <dbl>, …
Exercise 8

Use pivot_longer() to reshape wpop2 into “long format” with columns as shown below (in particular make sure year is a numeric variable) and call the resulting tibble pop_long.

pop_long <- wpop2 |>
  pivot_longer(cols = `1960`:`2022`,  # Columns to pivot (year columns)
               names_to = "year",     # New column for years
               values_to = "pop")     # New column for population values

pop_long <- pop_long |>
  mutate(year = as.numeric(year))  # Convert year to numeric

pop_long

# A tibble: 12,159 × 5
   continent country     code   year      pop
   <chr>     <chr>       <chr> <dbl>    <dbl>
 1 AS        Afghanistan AFG    1960  8622466
 2 AS        Afghanistan AFG    1961  8790140
 3 AS        Afghanistan AFG    1962  8969047
 4 AS        Afghanistan AFG    1963  9157465
 5 AS        Afghanistan AFG    1964  9355514
 6 AS        Afghanistan AFG    1965  9565147
 7 AS        Afghanistan AFG    1966  9783147
 8 AS        Afghanistan AFG    1967 10010030
 9 AS        Afghanistan AFG    1968 10247780
10 AS        Afghanistan AFG    1969 10494489
# ℹ 12,149 more rows
…
Exercise 13

Run the following command and describe in a few words what the result growth_long is.

growth_long <- pop_long |> 
  group_by(country,continent,code) |>                 # groups country first then continent and finally code. 
  reframe(pop_start = pop[1:(length(pop)-1)],         # take all elements of "pop" except last.
          pop_end = pop[2:length(pop)],               # take all elements of "pop" except first.
          growth = 100*(pop_end-pop_start)/pop_start, # Calculate the growth rate between years "in %".
          end_year = year[2:length(year)])            # End of year of each interval "remove 1960"

growth_long

# A tibble: 11,966 × 7
   country     continent code  pop_start  pop_end growth end_year
   <chr>       <chr>     <chr>     <dbl>    <dbl>  <dbl>    <dbl>
 1 Afghanistan AS        AFG     8622466  8790140   1.94     1961
 2 Afghanistan AS        AFG     8790140  8969047   2.04     1962
 3 Afghanistan AS        AFG     8969047  9157465   2.10     1963
 4 Afghanistan AS        AFG     9157465  9355514   2.16     1964
 5 Afghanistan AS        AFG     9355514  9565147   2.24     1965
 6 Afghanistan AS        AFG     9565147  9783147   2.28     1966
 7 Afghanistan AS        AFG     9783147 10010030   2.32     1967
 8 Afghanistan AS        AFG    10010030 10247780   2.38     1968
 9 Afghanistan AS        AFG    10247780 10494489   2.41     1969
10 Afghanistan AS        AFG    10494489 10752971   2.46     1970
# ℹ 11,956 more rows
…
Exercise 16

For each country find both the largest positive and the smallest (most negative) growth over the years in the data so you end up with a tibble (tbl) named growth_range with 193 rows and 3 columns with names as shown in the output below. hint: group_by() and summarise() are your friends.

growth_range <- growth_long |>
  group_by(country) |>                          # groups country. 
  reframe(max_growth = signif(max(growth),3),   # largest positive growth. signif rounds number to specified number of significant 
          min_growth = signif(min(growth),3))   # smallest/negative growth.

growth_range

# A tibble: 193 × 3
   country             max_growth min_growth
   <chr>                    <dbl>      <dbl>
 1 Afghanistan              16.1     -10.7  
 2 Albania                   3.17     -1.21 
 3 Algeria                   4.93      1.36 
 4 Andorra                   8.47     -3.16 
 5 Angola                    3.83      0.698
 6 Antigua and Barbuda       2.05     -0.577
 7 Argentina                 1.72      0.256
 8 Armenia                   3.54     -3.28 
 9 Australia                 3.44      0.141
10 Austria                   1.13     -0.265
# ℹ 183 more rows
…
Exercise 20

Use pivot_wider() to reshape growth_long to wide format with one column per year and call the result growth.

growth <- growth_long |>
  select(country, continent, code, end_year, growth) |> # select relevant columns otherwise pop_start and end will ruin it
  pivot_wider(
    names_from = end_year,
    values_from = growth
  ) |>
    arrange(country)

growth

# A tibble: 193 × 65
   country      continent code  `1961` `1962` `1963` `1964` `1965` `1966` `1967`
   <chr>        <chr>     <chr>  <dbl>  <dbl>  <dbl>  <dbl>  <dbl>  <dbl>  <dbl>
 1 Afghanistan  AS        AFG    1.94   2.04   2.10   2.16   2.24   2.28   2.32 
 2 Albania      EU        ALB    3.17   3.10   3.00   2.92   2.79   2.67   2.67 
 3 Algeria      AF        DZA    1.79   1.55   1.62   1.75   1.66   1.87   2.25 
 4 Andorra      EU        AND    8.19   7.81   7.49   7.19   6.88   7.25   8.24 
 5 Angola       AF        AGO    1.57   1.47   1.42   1.31   1.12   0.880  0.699
 6 Antigua and… NA        ATG    1.63   1.36   1.35   1.53   1.67   1.63   1.65 
 7 Argentina    SA        ARG    1.63   1.64   1.63   1.61   1.59   1.58   1.58 
 8 Armenia      AS        ARM    3.54   3.44   3.28   3.08   2.90   2.75   2.64 
 9 Australia    OC        AUS    2.01   2.47   1.94   1.98   1.98   2.31   1.27 
10 Austria      EU        AUT    0.550  0.615  0.644  0.669  0.652  0.704  0.750
# ℹ 183 more rows
# ℹ 55 more variables: `1968` <dbl>, `1969` <dbl>, `1970` <dbl>, `1971` <dbl>,
#   `1972` <dbl>, `1973` <dbl>, `1974` <dbl>, `1975` <dbl>, `1976` <dbl>,
#   `1977` <dbl>, `1978` <dbl>, `1979` <dbl>, `1980` <dbl>, `1981` <dbl>,
#   `1982` <dbl>, `1983` <dbl>, `1984` <dbl>, `1985` <dbl>, `1986` <dbl>,
#   `1987` <dbl>, `1988` <dbl>, `1989` <dbl>, `1990` <dbl>, `1991` <dbl>,
#   `1992` <dbl>, `1993` <dbl>, `1994` <dbl>, `1995` <dbl>, `1996` <dbl>, …
…
