Data Science Exam: Part 2
…
Exercise 2

Plot the response against each of the explanatory variables/features and add a smooth line as a very rough indication of how the probability of diabetes depends on the individual feature (note the response has to be numeric for the smooth line to work).

# Convert data to long format to use facetting
dia_long <- dia_clean_dat |>
  pivot_longer(cols = c("Pregnancies", "Glucose", "BloodPressure", "SkinThickness", "Insulin", "BMI", "DiabetesPedigreeFunction", "Age"),
               names_to = "Feature",
               values_to = "Value")

dia_long

# A tibble: 3,144 × 3
   Outcome Feature                    Value
     <dbl> <chr>                      <dbl>
 1       0 Pregnancies                1    
 2       0 Glucose                   89    
 3       0 BloodPressure             66    
 4       0 SkinThickness             23    
 5       0 Insulin                   94    
 6       0 BMI                       28.1  
 7       0 DiabetesPedigreeFunction   0.167
 8       0 Age                       21    
 9       1 Pregnancies                0    
10       1 Glucose                  137    
# ℹ 3,134 more rows
…
