Clustering - discovering groups in data
…
## # A tibble: 50 × 5
##    state region_9         region_7  region_5  region_4 
##    <chr> <chr>            <chr>     <chr>     <chr>    
##  1 AK    Alaska og Hawaii West      West      West     
##  2 AL    South            South     South     South    
##  3 AR    South            South     South     South    
##  4 AZ    Southwest        West      West      West     
##  5 CA    Pacific Coast    West      West      West     
##  6 CO    Rocky Mountains  West      West      West     
##  7 CT    New England      Northeast Northeast Northeast
##  8 DE    Mid-Atlantic     South     South     South    
##  9 FL    South            South     South     South    
## 10 GA    South            South     South     South    
## # ℹ 40 more rows

USA is in some cases regarded as having 9 regions, in other cases 7
or 5 or 4 regions.

states_df

## # A tibble: 50 × 5
##    state region_9         region_7  region_5  region_4 
##    <chr> <chr>            <chr>     <chr>     <chr>    
##  1 AK    Alaska og Hawaii West      West      West     
##  2 AL    South            South     South     South    
##  3 AR    South            South     South     South    
##  4 AZ    Southwest        West      West      West     
##  5 CA    Pacific Coast    West      West      West     
##  6 CO    Rocky Mountains  West      West      West     
##  7 CT    New England      Northeast Northeast Northeast
##  8 DE    Mid-Atlantic     South     South     South    
##  9 FL    South            South     South     South    
## 10 GA    South            South     South     South    
## # ℹ 40 more rows
…
library(dplyr)

clusdat2 <- states_df |> left_join(clusdat, by = join_by(state == abbr))
clusdat2

## # A tibble: 50 × 13
##    state region_9         region_7  region_5 region_4 fips  full  pop_2022 name 
##    <chr> <chr>            <chr>     <chr>    <chr>    <chr> <chr>    <dbl> <chr>
##  1 AK    Alaska og Hawaii West      West     West     02    Alas…   733583 Alas…
##  2 AL    South            South     South    South    01    Alab…  5074296 Alab…
##  3 AR    South            South     South    South    05    Arka…  3045637 Arka…
##  4 AZ    Southwest        West      West     West     04    Ariz…  7359197 Ariz…
##  5 CA    Pacific Coast    West      West     West     06    Cali… 39029342 Cali…
##  6 CO    Rocky Mountains  West      West     West     08    Colo…  5839926 Colo…
##  7 CT    New England      Northeast Northea… Northea… 09    Conn…  3626205 Conn…
##  8 DE    Mid-Atlantic     South     South    South    10    Dela…  1018396 Dela…
##  9 FL    South            South     South    South    12    Flor… 22244823 Flor…
## 10 GA    South            South     South    South    13    Geor… 10912876 Geor…
## # ℹ 40 more rows
## # ℹ 4 more variables: cluster_4 <fct>, cluster_5 <fct>, cluster_7 <fct>,
## #   cluster_9 <fct>
…
